<?xml version="1.0" encoding="UTF-8" standalone="no"?>
<svg width="6px" height="11px" viewBox="0 0 6 11" version="1.1" xmlns="http://www.w3.org/2000/svg" xmlns:xlink="http://www.w3.org/1999/xlink">
    <!-- Generator: sketchtool 41.2 (35397) - http://www.bohemiancoding.com/sketch -->
    <title>77C9FF8F-D20F-4940-8A6D-0EDFFBB4C933</title>
    <desc>Created with sketchtool.</desc>
    <defs>
        <rect id="path-1" x="110" y="130" width="806" height="574"></rect>
        <filter x="-50%" y="-50%" width="200%" height="200%" filterUnits="objectBoundingBox" id="filter-2">
            <feOffset dx="0" dy="2" in="SourceAlpha" result="shadowOffsetOuter1"></feOffset>
            <feGaussianBlur stdDeviation="1" in="shadowOffsetOuter1" result="shadowBlurOuter1"></feGaussianBlur>
            <feColorMatrix values="0 0 0 0 0   0 0 0 0 0   0 0 0 0 0  0 0 0 0.05 0" type="matrix" in="shadowBlurOuter1"></feColorMatrix>
        </filter>
    </defs>
    <g id="Welcome" stroke="none" stroke-width="1" fill="none" fill-rule="evenodd">
        <g id="Desktop_Main" transform="translate(-877.000000, -640.000000)">
            <g id="Rectangle-2-Copy-5">
                <use fill="black" fill-opacity="1" filter="url(#filter-2)" xlink:href="#path-1"></use>
                <use fill="#FBFBFB" fill-rule="evenodd" xlink:href="#path-1"></use>
            </g>
            <g id="Group" transform="translate(768.000000, 627.000000)">
                <rect id="Input-Background" fill="#4A4A4A" x="0" y="0" width="128" height="36" rx="3"></rect>
                <polygon id="Disclosure-Indicator" fill="#FFFFFF" points="109 14.2670772 109 13 115 18.4978464 109 24 109 22.7286156 113.375 18.4978464"></polygon>
            </g>
        </g>
    </g>
</svg>